{
    "openapi": "3.0.0",
    "info": {
        "title": "Авторизация/Базовые методы",
        "version": "1.0.0"
    },
    "paths": {
        "/api/login": {
            "post": {
                "tags": [
                    "Авторизация"
                ],
                "summary": "Авторизация пользователя",
                "description": "Для авторизации нужен email и пароль пользователя",
                "operationId": "authLogin",
                "requestBody": {
                    "description": "Значения общих настроек",
                    "required": true,
                    "content": {
                        "application/json": {
                            "schema": {
                                "properties": {
                                    "email": {
                                        "description": "Email",
                                        "type": "string",
                                        "example": "admin@admin.ru"
                                    },
                                    "password": {
                                        "description": "Пароль",
                                        "type": "string",
                                        "example": "password123"
                                    }
                                },
                                "type": "object"
                            }
                        }
                    }
                },
                "responses": {
                    "401": {
                        "description": "Неверные авторизационные данные",
                        "content": {
                            "application/json": {
                                "schema": {
                                    "properties": {
                                        "error": {
                                            "properties": {
                                                "error_code": {
                                                    "type": "integer",
                                                    "example": "2"
                                                },
                                                "error_msg": {
                                                    "type": "string",
                                                    "example": "Неверные авторизационные данные."
                                                }
                                            },
                                            "type": "object"
                                        }
                                    },
                                    "type": "object"
                                }
                            }
                        }
                    },
                    "422": {
                        "description": "Ошибка валидации",
                        "content": {
                            "application/json": {
                                "schema": {
                                    "properties": {
                                        "error": {
                                            "properties": {
                                                "error_code": {
                                                    "type": "integer",
                                                    "example": "1"
                                                },
                                                "error_msg": {
                                                    "type": "string",
                                                    "example": "Ошибка валидации."
                                                },
                                                "fields": {
                                                    "properties": {
                                                        "email": {
                                                            "type": "array",
                                                            "items": {
                                                                "example": "Поле email должно содержать корректный email."
                                                            }
                                                        }
                                                    },
                                                    "type": "object"
                                                }
                                            },
                                            "type": "object"
                                        }
                                    },
                                    "type": "object"
                                }
                            }
                        }
                    }
                }
            }
        },
        "/api/register": {
            "post": {
                "tags": [
                    "Авторизация"
                ],
                "summary": "Регистрация пользователя",
                "description": "Для регистрации нужен email и пароль пользователя",
                "operationId": "authRegister",
                "requestBody": {
                    "description": "Значения общих настроек",
                    "required": true,
                    "content": {
                        "application/json": {
                            "schema": {
                                "properties": {
                                    "first_name": {
                                        "description": "First Name",
                                        "type": "string",
                                        "example": "First Name"
                                    },
                                    "last_name": {
                                        "description": "Last Name",
                                        "type": "string",
                                        "example": "Last Name"
                                    },
                                    "email": {
                                        "description": "Email",
                                        "type": "string",
                                        "example": "admin@admin.ru"
                                    },
                                    "password": {
                                        "description": "Пароль",
                                        "type": "string",
                                        "example": "password123"
                                    },
                                    "password_confirmation": {
                                        "description": "Подтверждение пароля",
                                        "type": "string",
                                        "example": "password123"
                                    }
                                },
                                "type": "object"
                            }
                        }
                    }
                },
                "responses": {
                    "401": {
                        "description": "Неверные авторизационные данные",
                        "content": {
                            "application/json": {
                                "schema": {
                                    "properties": {
                                        "error": {
                                            "properties": {
                                                "error_code": {
                                                    "type": "integer",
                                                    "example": "2"
                                                },
                                                "error_msg": {
                                                    "type": "string",
                                                    "example": "Неверные авторизационные данные."
                                                }
                                            },
                                            "type": "object"
                                        }
                                    },
                                    "type": "object"
                                }
                            }
                        }
                    },
                    "422": {
                        "description": "Ошибка валидации",
                        "content": {
                            "application/json": {
                                "schema": {
                                    "properties": {
                                        "error": {
                                            "properties": {
                                                "error_code": {
                                                    "type": "integer",
                                                    "example": "1"
                                                },
                                                "error_msg": {
                                                    "type": "string",
                                                    "example": "Ошибка валидации."
                                                },
                                                "fields": {
                                                    "properties": {
                                                        "email": {
                                                            "type": "array",
                                                            "items": {
                                                                "example": "Поле email должно содержать корректный email."
                                                            }
                                                        }
                                                    },
                                                    "type": "object"
                                                }
                                            },
                                            "type": "object"
                                        }
                                    },
                                    "type": "object"
                                }
                            }
                        }
                    }
                }
            }
        },
        "/api/brands": {
            "get": {
                "tags": [
                    "Марки автомобилей"
                ],
                "summary": "Список марок автомобилей",
                "description": "Возвращает список марок автомобилей",
                "operationId": "brandsList",
                "responses": {
                    "200": {
                        "description": "Запрос выполнен успешно"
                    }
                }
            }
        },
        "/api/cars": {
            "get": {
                "tags": [
                    "Автомобили"
                ],
                "summary": "Возвращает список автомобилей",
                "description": "Возвращает список автомобилей",
                "operationId": "carsList",
                "responses": {
                    "200": {
                        "description": "Запрос выполнен успешно"
                    }
                }
            },
            "post": {
                "tags": [
                    "Автомобили"
                ],
                "summary": "Создание автомобиля",
                "description": "Создание автомобиля",
                "operationId": "carsStore",
                "parameters": [
                    {
                        "name": "brand_id",
                        "in": "query",
                        "description": "id марки",
                        "required": true,
                        "example": "1"
                    },
                    {
                        "name": "model_id",
                        "in": "query",
                        "description": "id модели",
                        "required": true,
                        "example": "2"
                    },
                    {
                        "name": "color",
                        "in": "query",
                        "description": "Цвет",
                        "example": "#cccccc"
                    },
                    {
                        "name": "release_year",
                        "in": "query",
                        "description": "Год выпуска",
                        "example": "2023"
                    },
                    {
                        "name": "mileage",
                        "in": "query",
                        "description": "Пробег",
                        "example": "10000"
                    }
                ],
                "responses": {
                    "200": {
                        "description": "",
                        "content": {
                            "application/json": {
                                "schema": {
                                    "properties": {
                                        "id": {
                                            "type": "integer",
                                            "example": "1"
                                        },
                                        "name": {
                                            "type": "string",
                                            "example": "Название категории"
                                        }
                                    },
                                    "type": "object"
                                }
                            }
                        }
                    }
                }
            }
        },
        "/api/cars/{car}": {
            "get": {
                "tags": [
                    "Автомобили"
                ],
                "summary": "Информация об автомобиле",
                "description": "Информация об автомобиле",
                "operationId": "carsEdit",
                "parameters": [
                    {
                        "name": "car",
                        "in": "path",
                        "description": "id автомобиля",
                        "required": true,
                        "example": "1"
                    }
                ],
                "responses": {
                    "200": {
                        "description": "Данные для редактирование категории",
                        "content": {
                            "application/json": {
                                "schema": {
                                    "properties": {
                                        "data": {
                                            "type": "array",
                                            "items": {
                                                "properties": {
                                                    "name": {
                                                        "type": "string",
                                                        "example": "Название категории"
                                                    },
                                                    "code": {
                                                        "type": "string",
                                                        "example": "name"
                                                    },
                                                    "require": {
                                                        "type": "boolean",
                                                        "example": "true"
                                                    },
                                                    "value": {
                                                        "type": "string",
                                                        "example": "Название категории"
                                                    }
                                                },
                                                "type": "object"
                                            }
                                        }
                                    },
                                    "type": "object"
                                }
                            }
                        }
                    }
                }
            },
            "put": {
                "tags": [
                    "Автомобили"
                ],
                "summary": "Обновление автомобиля",
                "description": "Обновление автомобиля",
                "operationId": "categoryUpdate",
                "parameters": [
                    {
                        "name": "car",
                        "in": "path",
                        "description": "id автомобиля",
                        "required": true,
                        "example": "1"
                    },
                    {
                        "name": "brand_id",
                        "in": "query",
                        "description": "id марки",
                        "required": true,
                        "example": "1"
                    },
                    {
                        "name": "model_id",
                        "in": "query",
                        "description": "id модели",
                        "required": true,
                        "example": "2"
                    },
                    {
                        "name": "color",
                        "in": "query",
                        "description": "Цвет",
                        "example": "#cccccc"
                    },
                    {
                        "name": "release_year",
                        "in": "query",
                        "description": "Год выпуска",
                        "example": "2023"
                    },
                    {
                        "name": "mileage",
                        "in": "query",
                        "description": "Пробег",
                        "example": "10000"
                    }
                ],
                "responses": {
                    "200": {
                        "description": "",
                        "content": {
                            "application/json": {
                                "schema": {
                                    "properties": {
                                        "id": {
                                            "type": "integer",
                                            "example": "1"
                                        },
                                        "name": {
                                            "type": "string",
                                            "example": "Новое название"
                                        }
                                    },
                                    "type": "object"
                                }
                            }
                        }
                    }
                }
            },
            "delete": {
                "tags": [
                    "Автомобили"
                ],
                "summary": "Удаление автомобиля",
                "description": "Удаление автомобиля",
                "operationId": "carsDestroy",
                "parameters": [
                    {
                        "name": "car",
                        "in": "path",
                        "description": "id автомобиля",
                        "required": true,
                        "example": "1"
                    }
                ],
                "responses": {
                    "200": {
                        "description": "Запрос выполнен успешно"
                    }
                }
            }
        },
        "/api/models": {
            "get": {
                "tags": [
                    "Модели автомобилей"
                ],
                "summary": "Список моделей автомобилей",
                "description": "Возвращает список моделей автомобилей",
                "operationId": "modelsList",
                "responses": {
                    "200": {
                        "description": "Запрос выполнен успешно"
                    }
                }
            }
        },
        "/api/binding/{car}": {
            "post": {
                "tags": [
                    "Привязка"
                ],
                "summary": "Привязка пользователя к автомобилю",
                "description": "Привязка пользователя к автомобилю",
                "operationId": "bindingUserCars",
                "parameters": [
                    {
                        "name": "car",
                        "in": "path",
                        "description": "id автомобиля",
                        "required": true,
                        "example": "1"
                    }
                ],
                "responses": {
                    "200": {
                        "description": "",
                        "content": {
                            "application/json": {
                                "schema": {
                                    "properties": {
                                        "id": {
                                            "type": "integer",
                                            "example": "1"
                                        },
                                        "name": {
                                            "type": "string",
                                            "example": "Название тега"
                                        },
                                        "color": {
                                            "type": "string",
                                            "example": "Цвет тега"
                                        }
                                    },
                                    "type": "object"
                                }
                            }
                        }
                    }
                },
                "security": [
                    {
                        "sanctum": []
                    }
                ]
            }
        },
        "/api/binding/list": {
            "get": {
                "tags": [
                    "Привязка"
                ],
                "summary": "Список привязанных автомобилей",
                "description": "Список привязанных автомобилей",
                "operationId": "bindingList",
                "responses": {
                    "200": {
                        "description": "",
                        "content": {
                            "application/json": {
                                "schema": {
                                    "properties": {
                                        "id": {
                                            "type": "integer",
                                            "example": "1"
                                        },
                                        "name": {
                                            "type": "string",
                                            "example": "Название тега"
                                        },
                                        "color": {
                                            "type": "string",
                                            "example": "Цвет тега"
                                        }
                                    },
                                    "type": "object"
                                }
                            }
                        }
                    }
                },
                "security": [
                    {
                        "sanctum": []
                    }
                ]
            }
        },
        "/api/binding/{car}/untie": {
            "post": {
                "tags": [
                    "Привязка"
                ],
                "summary": "Отвязать пользователя от автомобиля",
                "description": "Отвязать пользователя от автомобиля",
                "operationId": "untieUserCars",
                "parameters": [
                    {
                        "name": "car",
                        "in": "path",
                        "description": "id автомобиля",
                        "required": true,
                        "example": "1"
                    }
                ],
                "responses": {
                    "200": {
                        "description": "",
                        "content": {
                            "application/json": {
                                "schema": {
                                    "properties": {
                                        "id": {
                                            "type": "integer",
                                            "example": "1"
                                        },
                                        "name": {
                                            "type": "string",
                                            "example": "Название тега"
                                        },
                                        "color": {
                                            "type": "string",
                                            "example": "Цвет тега"
                                        }
                                    },
                                    "type": "object"
                                }
                            }
                        }
                    }
                },
                "security": [
                    {
                        "sanctum": []
                    }
                ]
            }
        }
    },
    "components": {
        "securitySchemes": {
            "sanctum": {
                "type": "apiKey",
                "description": "Введите token в следующем формате: Bearer Ваш Api Token",
                "name": "Authorization",
                "in": "header"
            }
        }
    }
}